<?xml version="1.0" encoding="UTF-8" standalone="no" ?>
<!DOCTYPE svg PUBLIC "-//W3C//DTD SVG 1.1//EN" "http://www.w3.org/Graphics/SVG/1.1/DTD/svg11.dtd">
<svg xmlns="http://www.w3.org/2000/svg" xmlns:xlink="http://www.w3.org/1999/xlink" version="1.1" width="77.83959960483014" height="77.83960000000002" viewBox="359.70262868871396 386.1847779816514 77.83959960483014 77.83960000000002" xml:space="preserve">
<desc>Created with Fabric.js 4.6.0</desc>
<defs>
</defs>
<g transform="matrix(0 1 -1 0 398.62 425.1)" id="lkKxXp_xSK2qK19ucxkdD"  >
<path style="stroke: none; stroke-width: 1; stroke-dasharray: none; stroke-linecap: butt; stroke-dashoffset: 0; stroke-linejoin: miter; stroke-miterlimit: 4; fill: rgb(255,99,99); fill-rule: nonzero; opacity: 1;" vector-effect="non-scaling-stroke"  transform=" translate(-38.42, -11)" d="M 57.83523 22 L 57.83523 15.04503 L 19.004360000000005 15.04503 L 19.004360000000005 21.99934 L -0.000009999999996068709 11 L 19.004360000000005 0 L 19.004360000000005 6.97356 L 57.83523 6.97356 L 57.83523 0 L 76.8396 11 z" stroke-linecap="round" />
</g>
<g transform="matrix(1 0 0 1 398.62 425.1)" id="XnuBUk-Y3yyM61jwRrfhm"  >
<path style="stroke: none; stroke-width: 1; stroke-dasharray: none; stroke-linecap: butt; stroke-dashoffset: 0; stroke-linejoin: miter; stroke-miterlimit: 4; fill: rgb(255,99,99); fill-rule: nonzero; opacity: 1;" vector-effect="non-scaling-stroke"  transform=" translate(-38.42, -11)" d="M 57.83518 21.99999 L 57.83518 15.045020000000001 L 19.00443 15.045020000000001 L 19.00443 21.99933 L 0.000009999999999621423 10.99999 L 19.00443 -0.000009999999999621423 L 19.00443 6.97355 L 57.83518 6.97355 L 57.83518 -0.000009999999999621423 L 76.8396 10.99999 z" stroke-linecap="round" />
</g>
</svg>